{
  "GEO": ["GSE14924"],
  "source": [],
  "targetDbName": ["KEGG"],
  "targetGeneSet": ["path:hsa05221"],
  "annotationDbName": ["hgu133plus2.db"],
  "samples": ["GSM372731", "GSM372732", "GSM372733", "GSM372734", "GSM372735", "GSM372736", "GSM372737", "GSM372738", "GSM372739", "GSM372740", "GSM372741", "GSM372711", "GSM372712", "GSM372713", "GSM372714", "GSM372715", "GSM372716", "GSM372717", "GSM372718", "GSM372719", "GSM372720"],
  "phenotypes": ["c", "c", "c", "c", "c", "c", "c", "c", "c", "c", "c", "t", "t", "t", "t", "t", "t", "t", "t", "t", "t"],
  "block": [],
  "isLog2": [false]
}
