{
  "GEO": ["GSE21354"],
  "source": [],
  "targetDbName": ["KEGG"],
  "targetGeneSet": ["path:hsa05214"],
  "annotationDbName": ["hgu133plus2.db"],
  "samples": ["GSM492649", "GSM525014", "GSM525015", "GSM525016", "GSM492653", "GSM492654", "GSM492655", "GSM492656", "GSM533622", "GSM533623", "GSM533624", "GSM533625", "GSM533626", "GSM533627", "GSM533628", "GSM533629", "GSM533630"],
  "phenotypes": ["c", "c", "c", "c", "t", "t", "t", "t", "t", "t", "t", "t", "t", "t", "t", "t", "t"],
  "block": [],
  "isLog2": [false]
}
