{
  "GEO": ["GSE3585"],
  "source": [],
  "targetDbName": ["KEGG"],
  "targetGeneSet": ["path:hsa05414"],
  "annotationDbName": ["hgu133a.db"],
  "samples": ["GSM82381", "GSM82382", "GSM82383", "GSM82384", "GSM82385", "GSM82386", "GSM82387", "GSM82388", "GSM82389", "GSM82390", "GSM82391", "GSM82392"],
  "phenotypes": ["c", "c", "c", "c", "c", "t", "t", "t", "t", "t", "t", "t"],
  "block": [],
  "isLog2": [true]
}
