{
  "GEO": ["GSE3467"],
  "source": [],
  "targetDbName": ["KEGG"],
  "targetGeneSet": ["path:hsa05216"],
  "annotationDbName": ["hgu133plus2.db"],
  "samples": ["GSM77362", "GSM77364", "GSM77366", "GSM77368", "GSM77370", "GSM77372", "GSM77374", "GSM77376", "GSM77378", "GSM77363", "GSM77365", "GSM77367", "GSM77369", "GSM77371", "GSM77373", "GSM77375", "GSM77377", "GSM77379"],
  "phenotypes": ["c", "c", "c", "c", "c", "c", "c", "c", "c", "t", "t", "t", "t", "t", "t", "t", "t", "t"],
  "block": ["14", "26", "50", "69", "71", "11", "67", "77", "86", "14", "26", "50", "69", "71", "11", "67", "77", "86"],
  "isLog2": [true]
}
